{
  "project_info": {
    "project_number": "296293456797",
    "project_id": "flash-chat0011",
    "storage_bucket": "flash-chat0011.appspot.com"
  },
  "client": [
    {
      "client_info": {
        "mobilesdk_app_id": "1:296293456797:android:2ef0fe03f4eb0054696d74",
        "android_client_info": {
          "package_name": "com.flash_chat.flash_chat"
        }
      },
      "oauth_client": [
        {
          "client_id": "296293456797-3k3ahb5nmpsvvcv49je7q6hheqir2uft.apps.googleusercontent.com",
          "client_type": 3
        }
      ],
      "api_key": [
        {
          "current_key": "AIzaSyCxMngtYhrOoXCVzFOonV2Amg1usfwhHCI"
        }
      ],
      "services": {
        "appinvite_service": {
          "other_platform_oauth_client": [
            {
              "client_id": "296293456797-3k3ahb5nmpsvvcv49je7q6hheqir2uft.apps.googleusercontent.com",
              "client_type": 3
            },
            {
              "client_id": "296293456797-tsm0tck6p7r40283mejj67r4n21mugc6.apps.googleusercontent.com",
              "client_type": 2,
              "ios_info": {
                "bundle_id": "com.flashchat.flashChat"
              }
            }
          ]
        }
      }
    }
  ],
  "configuration_version": "1"
}